{
  "Users": [
    {
      "AppUserName": "abitakpaisbank",
      "UserDetail": {
        "MusteriNo": "51049602",
        "Username": "U051049606",
        "Password": "C0X0kd6z3z"
      }
    },
    {
      "AppUserName": "abitaygazisbank",
      "UserDetail": {
        "MusteriNo": "7308604",
        "Username": "U007308609",
        "Password": "2DPoK6a2dB"
      }
    },
    {
      "AppUserName": "abitbalkaynakisbank",
      "UserDetail": {
        "MusteriNo": "404293994",
        "Username": "U404293994",
        "Password": "H900QcLt5o"
      }
    },
    {
      "AppUserName": "abitaygdgisbank",
      "UserDetail": {
        "MusteriNo": "96939068",
        "Username": "U096939067",
        "Password": "926QRqkF81"
      }
    },
    {
      "AppUserName": "abitaygsendeoisbank",
      "UserDetail": {
        "MusteriNo": "416696451",
        "Username": "U416696459",
        "Password": "GZTKHp20X8"
      }
    }
  ]
}
