<?xml version="1.0" encoding="utf-16"?>
<s:Envelope xmlns:s="http://schemas.xmlsoap.org/soap/envelope/">
  <s:Header>
    <Action s:mustUnderstand="1" xmlns="http://schemas.microsoft.com/ws/2005/05/addressing/none">http://tempuri.org/GetExtreWithParams</Action>
  </s:Header>
  <s:Body xmlns:xsi="http://www.w3.org/2001/XMLSchema-instance" xmlns:xsd="http://www.w3.org/2001/XMLSchema">
    <GetExtreWithParams xmlns="http://tempuri.org/">
      <urf>5218987</urf>
      <hesapNo>471</hesapNo>
      <dovizKodu>TL</dovizKodu>
      <subeKodu />
      <baslangicTarihi>20200302000000000000</baslangicTarihi>
      <bitisTarihi>20200302021700000000</bitisTarihi>
    </GetExtreWithParams>
  </s:Body>
</s:Envelope>