<?xml version="1.0" encoding="utf-16"?>
<s:Envelope xmlns:s="http://schemas.xmlsoap.org/soap/envelope/">
  <s:Header>
    <Action s:mustUnderstand="1" xmlns="http://schemas.microsoft.com/ws/2005/05/addressing/none">http://tempuri.org/SorgulaHesapHareket</Action>
  </s:Header>
  <s:Body xmlns:xsi="http://www.w3.org/2001/XMLSchema-instance" xmlns:xsd="http://www.w3.org/2001/XMLSchema">
    <SorgulaHesapHareket xmlns="http://tempuri.org/">
      <musteriNo>37462109</musteriNo>
      <ekNo>5003</ekNo>
      <baslangicTr>11082020</baslangicTr>
      <bitisTr>11082020</bitisTr>
      <kurumKod>AYGAZ</kurumKod>
      <sifre>vCk5zLvVAv</sifre>
    </SorgulaHesapHareket>
  </s:Body>
</s:Envelope><?xml version="1.0" encoding="utf-16"?>
<soap:Envelope xmlns:soap="http://schemas.xmlsoap.org/soap/envelope/" xmlns:xsi="http://www.w3.org/2001/XMLSchema-instance" xmlns:xsd="http://www.w3.org/2001/XMLSchema">
  <s:Header xmlns:s="http://schemas.xmlsoap.org/soap/envelope/" />
  <soap:Body>
    <SorgulaHesapHareketResponse xmlns="http://tempuri.org/">
      <SorgulaHesapHareketResult>
        <hataKodu>09</hataKodu>
        <hataAck>Hatalı kullanıcı adı veya şifre. Kullanıcı Adı:AYGAZ</hataAck>
      </SorgulaHesapHareketResult>
    </SorgulaHesapHareketResponse>
  </soap:Body>
</soap:Envelope>