<?xml version="1.0" encoding="utf-16"?>
<s:Envelope xmlns:s="http://schemas.xmlsoap.org/soap/envelope/">
  <s:Header>
    <Action s:mustUnderstand="1" xmlns="http://schemas.microsoft.com/ws/2005/05/addressing/none">urn:getTransactionInfo</Action>
  </s:Header>
  <s:Body xmlns:xsi="http://www.w3.org/2001/XMLSchema-instance" xmlns:xsd="http://www.w3.org/2001/XMLSchema">
    <getTransactionInfo xmlns="http://aygazanonimekstre.genericekstre.driver.maestro.ibtech.com">
      <transactionInfo xmlns="">
        <password>AYGAZANONIMQNB1</password>
        <transactionInfoInputType>
          <accountNo />
          <endDate>2020-01-02T00:00:00</endDate>
          <iban />
          <startDate>2020-01-01T00:00:00</startDate>
        </transactionInfoInputType>
        <userName>AYGAZANONIMWS</userName>
      </transactionInfo>
    </getTransactionInfo>
  </s:Body>
</s:Envelope>