<?xml version="1.0" encoding="utf-16"?>
<s:Envelope xmlns:s="http://schemas.xmlsoap.org/soap/envelope/">
  <s:Header>
    <Action s:mustUnderstand="1" xmlns="http://schemas.microsoft.com/ws/2005/05/addressing/none"></Action>
  </s:Header>
  <s:Body>
    <TEBWebSrv xmlns="http://prjwebservice/">
      <UserName>WSHSHRGON</UserName>
      <Password>H3s@pG0ster20150130</Password>
      <ServiceID>874</ServiceID>
      <Environment>P</Environment>
      <InputDataXML>&lt;?xml version="1.0" encoding="utf-8"?&gt;
&lt;HESHARSORGU xmlns:xsi="http://www.w3.org/2001/XMLSchema-instance" xmlns:xsd="http://www.w3.org/2001/XMLSchema"&gt;
  &lt;FIRMA_AD&gt;aygaz&lt;/FIRMA_AD&gt;
  &lt;FIRMA_ANAHTAR&gt;aygaz$123&lt;/FIRMA_ANAHTAR&gt;
  &lt;SUBENO&gt;538&lt;/SUBENO&gt;
  &lt;HESNO&gt;43543366&lt;/HESNO&gt;
  &lt;BASTAR&gt;09.05.2023&lt;/BASTAR&gt;
  &lt;BITTAR&gt;08.06.2023&lt;/BITTAR&gt;
  &lt;GON_IBAN_EH&gt;E&lt;/GON_IBAN_EH&gt;
  &lt;SON_BKY_EH&gt;E&lt;/SON_BKY_EH&gt;
  &lt;DEKONTNO_EH&gt;E&lt;/DEKONTNO_EH&gt;
  &lt;BLOKE_BKY_EH&gt;E&lt;/BLOKE_BKY_EH&gt;
  &lt;ALICI_IBAN_EH&gt;E&lt;/ALICI_IBAN_EH&gt;
&lt;/HESHARSORGU&gt;</InputDataXML>
    </TEBWebSrv>
  </s:Body>
</s:Envelope>