<?xml version="1.0" encoding="utf-16"?>
<s:Envelope xmlns:a="http://www.w3.org/2005/08/addressing" xmlns:s="http://www.w3.org/2003/05/soap-envelope">
  <s:Header>
    <a:Action s:mustUnderstand="1">Peak.Integration.ExternalInbound.Ekstre/ISOnlineEkstreServis/GetirHareket</a:Action>
    <a:MessageID>urn:uuid:10425c65-fe6f-4426-9c21-8e097f9fe4a3</a:MessageID>
    <a:ReplyTo>
      <a:Address>http://www.w3.org/2005/08/addressing/anonymous</a:Address>
    </a:ReplyTo>
  </s:Header>
  <s:Body>
    <GetirHareket xmlns="Peak.Integration.ExternalInbound.Ekstre">
      <sorgu xmlns:d4p1="http://schemas.datacontract.org/2004/07/Peak.Integration.ExternalInbound.Ekstre.DataTransferObjects" xmlns:i="http://www.w3.org/2001/XMLSchema-instance">
        <d4p1:MusteriNo>007267057692</d4p1:MusteriNo>
        <d4p1:KurumKullanici>SEBNEM YUCEL</d4p1:KurumKullanici>
        <d4p1:Sifre>WPYQXBFQ</d4p1:Sifre>
        <d4p1:SorguBaslangicTarihi>2023-01-11 00:00</d4p1:SorguBaslangicTarihi>
        <d4p1:SorguBitisTarihi>2023-03-11 23:30</d4p1:SorguBitisTarihi>
        <d4p1:HesapNo>00158007267057692</d4p1:HesapNo>
        <d4p1:HareketTipi i:nil="true" />
        <d4p1:EnDusukTutar>0</d4p1:EnDusukTutar>
        <d4p1:EnYuksekTutar>0</d4p1:EnYuksekTutar>
      </sorgu>
    </GetirHareket>
  </s:Body>
</s:Envelope>