﻿{
  "ProviderId": "Microsoft.VisualStudio.ConnectedService.Wcf",
  "Version": "15.0.31022.994",
  "GettingStartedDocument": {
    "Uri": "https://go.microsoft.com/fwlink/?linkid=858517"
  },
  "ExtendedData": {
    "inputs": [
      "../../../../../Users/a/Desktop/AkbankService.xml"
    ],
    "collectionTypes": [
      "System.Array",
      "System.Collections.Generic.Dictionary`2"
    ],
    "namespaceMappings": [
      "*, tr.com.akbank.api"
    ],
    "references": [
      "C:\\Project\\MT940\\ExternalService\\bin\\Debug\\netcoreapp3.1\\Newtonsoft.Json.dll",
      "log4net, {log4net, 2.0.8}",
      "Microsoft.AspNetCore.Cors, {Microsoft.AspNetCore.Cors, 2.2.0}",
      "Microsoft.AspNetCore.Http.Abstractions, {Microsoft.AspNetCore.Http.Abstractions, 2.2.0}",
      "Microsoft.AspNetCore.Http.Extensions, {Microsoft.AspNetCore.Http.Extensions, 2.2.0}",
      "Microsoft.AspNetCore.Http.Features, {Microsoft.AspNetCore.Http.Features, 2.2.0}",
      "Microsoft.Extensions.Configuration, {Microsoft.Extensions.Configuration, 3.0.0}",
      "Microsoft.Extensions.Configuration.Abstractions, {Microsoft.Extensions.Configuration.Abstractions, 3.0.0}",
      "Microsoft.Extensions.Configuration.Binder, {Microsoft.Extensions.Configuration.Binder, 3.0.0}",
      "Microsoft.Extensions.DependencyInjection, {Microsoft.Extensions.DependencyInjection, 3.0.0}",
      "Microsoft.Extensions.DependencyInjection.Abstractions, {Microsoft.Extensions.DependencyInjection.Abstractions, 3.0.0}",
      "Microsoft.Extensions.FileProviders.Abstractions, {Microsoft.Extensions.FileProviders.Abstractions, 2.2.0}",
      "Microsoft.Extensions.Logging, {Microsoft.Extensions.Logging, 3.0.0}",
      "Microsoft.Extensions.Logging.Abstractions, {Microsoft.Extensions.Logging.Abstractions, 3.0.0}",
      "Microsoft.Extensions.Logging.Log4Net.AspNetCore, {Microsoft.Extensions.Logging.Log4Net.AspNetCore, 3.0.3}",
      "Microsoft.Extensions.Options, {Microsoft.Extensions.Options, 3.0.0}",
      "Microsoft.Extensions.Primitives, {Microsoft.Extensions.Primitives, 3.0.0}",
      "Microsoft.Net.Http.Headers, {Microsoft.Net.Http.Headers, 2.2.0}",
      "System.AppContext, {System.AppContext, 4.1.0}",
      "System.Collections, {System.Collections, 4.3.0}",
      "System.Collections.NonGeneric, {System.Collections.NonGeneric, 4.0.1}",
      "System.Console, {System.Console, 4.0.0}",
      "System.Diagnostics.Debug, {System.Diagnostics.Debug, 4.3.0}",
      "System.Diagnostics.Process, {System.Diagnostics.Process, 4.1.0}",
      "System.Diagnostics.StackTrace, {System.Diagnostics.StackTrace, 4.0.1}",
      "System.Diagnostics.TraceSource, {System.Diagnostics.TraceSource, 4.0.0}",
      "System.Globalization, {System.Globalization, 4.3.0}",
      "System.IO, {System.IO, 4.3.0}",
      "System.IO.FileSystem, {System.IO.FileSystem, 4.3.0}",
      "System.IO.FileSystem.Primitives, {System.IO.FileSystem.Primitives, 4.3.0}",
      "System.IO.FileSystem.Watcher, {System.IO.FileSystem.Watcher, 4.0.0}",
      "System.Linq, {System.Linq, 4.3.0}",
      "System.Net.Http.Extensions, {System.Net.Http.Formatting.Extension, 5.2.3}",
      "System.Net.Http.Formatting, {System.Net.Http.Formatting.Extension, 5.2.3}",
      "System.Net.Http.Primitives, {System.Net.Http.Formatting.Extension, 5.2.3}",
      "System.Net.NameResolution, {System.Net.NameResolution, 4.0.0}",
      "System.Net.Primitives, {System.Net.Primitives, 4.0.11}",
      "System.Net.Requests, {System.Net.Requests, 4.0.11}",
      "System.Net.Sockets, {System.Net.Sockets, 4.1.0}",
      "System.Net.WebHeaderCollection, {System.Net.WebHeaderCollection, 4.0.1}",
      "System.Reflection, {System.Reflection, 4.3.0}",
      "System.Reflection.DispatchProxy, {System.Reflection.DispatchProxy, 4.5.0}",
      "System.Reflection.Extensions, {System.Reflection.Extensions, 4.0.1}",
      "System.Reflection.Primitives, {System.Reflection.Primitives, 4.3.0}",
      "System.Reflection.TypeExtensions, {System.Reflection.TypeExtensions, 4.1.0}",
      "System.Runtime, {System.Runtime, 4.3.0}",
      "System.Runtime.Extensions, {System.Runtime.Extensions, 4.3.0}",
      "System.Runtime.Handles, {System.Runtime.Handles, 4.3.0}",
      "System.Runtime.InteropServices, {System.Runtime.InteropServices, 4.3.0}",
      "System.Runtime.InteropServices.RuntimeInformation, {System.Runtime.InteropServices.RuntimeInformation, 4.0.0}",
      "System.Runtime.Serialization.Formatters, {System.Runtime.Serialization.Formatters, 4.3.0}",
      "System.Runtime.Serialization.Primitives, {System.Runtime.Serialization.Primitives, 4.3.0}",
      "System.Security.AccessControl, {System.Security.AccessControl, 4.5.0}",
      "System.Security.Cryptography.Xml, {System.Security.Cryptography.Xml, 4.5.0}",
      "System.Security.Permissions, {System.Security.Permissions, 4.5.0}",
      "System.Security.Principal.Windows, {System.Security.Principal.Windows, 4.5.0}",
      "System.ServiceModel, {System.ServiceModel.Primitives, 4.7.0}",
      "System.ServiceModel.Duplex, {System.ServiceModel.Duplex, 4.7.0}",
      "System.ServiceModel.Http, {System.ServiceModel.Http, 4.7.0}",
      "System.ServiceModel.NetTcp, {System.ServiceModel.NetTcp, 4.7.0}",
      "System.ServiceModel.Primitives, {System.ServiceModel.Primitives, 4.7.0}",
      "System.ServiceModel.Security, {System.ServiceModel.Security, 4.7.0}",
      "System.Text.Encoding, {System.Text.Encoding, 4.3.0}",
      "System.Text.Encodings.Web, {System.Text.Encodings.Web, 4.5.0}",
      "System.Text.RegularExpressions, {System.Text.RegularExpressions, 4.3.0}",
      "System.Threading, {System.Threading, 4.3.0}",
      "System.Threading.Tasks, {System.Threading.Tasks, 4.3.0}",
      "System.Threading.Thread, {System.Threading.Thread, 4.0.0}",
      "System.Threading.Timer, {System.Threading.Timer, 4.0.1}",
      "System.Xml.ReaderWriter, {System.Xml.ReaderWriter, 4.3.0}",
      "System.Xml.XDocument, {System.Xml.XDocument, 4.3.0}",
      "System.Xml.XmlDocument, {System.Xml.XmlDocument, 4.0.1}",
      "System.Xml.XPath, {System.Xml.XPath, 4.3.0}",
      "System.Xml.XPath.XDocument, {System.Xml.XPath.XDocument, 4.3.0}"
    ],
    "targetFramework": "netcoreapp3.1",
    "typeReuseMode": "All"
  }
}